"ID_subcuenca";"Name_subcuenca";"1990";"1991";"1992";"1993";"1994";"1995";"1996";"1997";"1998";"1999";"2000";"2001";"2002";"2003";"2004";"2005";"2006";"2007";"2008";"2009";"2010";"2011";"2012";"2013";"2014";"2015";"2016";"2017";"2018";"2019";"2020";"2021";"2022"
"UP";"Uqer Petorca";-0,576193460258422;0,959085076912235;1,03644083170671;0,222453746591931;-0,675554144351124;-1,16198719871944;-1,26532054595707;2,74651426669962;-0,0752469916327416;0,0918073134465868;1,23897345949274;0,847460787392261;2,09156947097058;-0,0100178726613796;-0,0774729566690738;1,27093897615804;0,529867644454843;NA;0,463278473478833;0,196192586846152;-0,536390053975601;NA;-0,878604497819454;-1,12238193348093;NA;0,0621131247507162;0,443008244278311;-0,0605362141684158;-1,33089170040367;-0,756153111841852;-1,48326525251351;-1,41080379395287;-0,970769792289824
"MP";"Middle Petorca";-0,663506787476733;0,63624843884246;0,990844551623314;0,199345893439723;-0,755270608881907;-1,08930883205718;-0,331490313412537;2,42326059842013;0,189902061633591;0,237790757951761;0,964428685911552;0,947176181911779;1,99478912411168;0,0307989717793233;0,163213638032792;0,947678874650774;0,346138417006791;NA;0,207218783129251;-0,55906734635962;-0,646523396879326;NA;-2,58496484430874;-0,983292426653129;NA;-0,109194968657679;-0,439806999101888;0,133785344088009;-0,736998285777204;0,135934805395041;-0,872051623903014;-2,58496484430874;-2,09110719396247
"UL";"Uqer Ligua";-0,445702200498444;0,735614719316415;1,0588584220732;0,441194985631497;-0,549159391915979;-0,831144573579747;-1,20794990435439;2,29217104665423;-0,150944370025794;0,217324860399476;1,07746464561722;0,825131807950759;1,94121463715294;0,182515541520145;-0,27737530160552;0,997429909208603;0,339516824290657;NA;0,680700238638506;-0,0831856106049475;-0,802715518988913;NA;-1,09435929039273;-1,34531600988602;NA;0,120763130893777;0,140587500443008;-0,545000415067414;-1,00326031417758;-1,66839131328146;-1,29025329389825;-1,48256154230847;-0,567885043951712
