"Nombre_subcuenca";"1989";"1990";"1991";"1992";"1993";"1994";"1995";"1996";"1997";"1998";"1999";"2000";"2001";"2002";"2003";"2004";"2005";"2006";"2007";"2008";"2009";"2010";"2011";"2012";"2013";"2014";"2015";"2016";"2017";"2018";"2019"
"Petorca Medio";2,3;2,37899305555556;2,2621875;2,06147727272727;2,72369212962963;3,40658564814815;3,6694696969697;3,73631944444444;1,98881944444444;2,34840277777778;2,32451388888889;1,54453703703704;2,36909090909091;3,29263888888889;3,43756944444445;2,33069444444444;2,30930555555556;2,25493055555556;2,635;2,70388888888889;2,60287878787878;3,31393939393939;3,50708333333333;4,25013888888889;4,98833333333334;5,70979166666667;3,68490740740741;2,12708333333334;3,813125;3,71729166666667;4,54611111111111
"Rio Ligua Alto (Estero Alicahue)";2,93166666666667;2,50961805555556;2,27597222222222;2,46227272727273;2,96497685185185;3,25236111111111;3,78818181818182;4,12545138888889;2,51102430555556;3,00875;2,50027777777778;1,01777777777778;2,08568181818182;3,30416666666667;3,9;2,74386574074074;2,75674768518518;2,47997685185185;3,466875;3,38613888888889;4,38272727272727;4,0389696969697;4,54909722222222;4,84416666666667;5,33895833333333;4,55508680555556;3,72619135802469;3,64333333333333;9,08895833333333;7,74863425925926;8,18388888888889
"Rio Ligua Bajo (Entre Estero Los Angeles y Desembocadura)";1,975;2,29708333333333;2,16972222222222;1,77954545454545;2,521875;3,46201388888889;3,96313131313131;4,92104166666667;2,78102430555556;2,69604166666667;2,84152777777777;1,75888888888889;2,82795454545455;4,01958333333333;4,56294444444444;4,09083333333333;3,79166666666666;3,06583333333334;3,59270833333333;3,84458333333333;3,57772727272727;4,34727272727273;5,26958333333333;5,1625462962963;5,83454861111111;5,25747569444444;4,56858024691358;4,36666666666667;6,34;6,17125;7,025
"Rio Ligua Medio (entre Quebrada La Cerrada y Los Angeles)";3,01833333333333;2,99916666666667;2,53777777777778;1,99681818181818;2,513125;3,54694444444445;4,1844696969697;4,59159722222222;2,52977430555555;2,67930555555556;2,88944444444445;1,85833333333333;2,71856060606061;3,95444444444444;4,43444444444444;2,8775;3,04986111111111;2,94833333333333;3,53770833333333;3,81833333333333;3,50378787878788;4,79136363636364;4,69902777777778;7,23583333333333;7,15350694444444;8,34425347222223;2,74672839506173;4,545;11,8941666666667;14,1263888888889;14,0257407407407
"Rio Petorca Alto (hasta despues Junta Rio Sobrante)";1,74833333333333;1,97534722222222;1,24913194444444;1,90420454545455;2,44890046296296;2,75671064814815;2,99030303030303;3,30177083333333;2,34333333333333;2,71833333333333;2,795;2,41444444444444;2,66540404040404;3,19958333333333;3,81291666666667;2,47375;2,59541666666667;2,28458333333333;2,61416666666666;2,56208333333334;2,83545454545455;2,91227272727272;3,31541666666667;3,48041666666666;4,085;3,22738888888889;3,38302469135802;3,115;4,86083333333333;5,59388888888889;6,80726851851852
"Rio Petorca Bajo (Entre Las Palmas y Desembocadura)";2,3;2,37899305555556;2,2621875;2,06147727272727;2,72369212962963;3,41900231481482;3,5605303030303;3,744375;2,35791666666667;2,32083333333334;3,25185185185186;1,68833333333333;2,36309090909091;3,345;3,23208333333334;2,41375;2,3075;2,53125;2,990625;3,46;3,27727272727273;3,89045454545454;4,58958333333334;4,81125;5,07625;5,64847222222222;4,40833333333333;2,50666666666667;4,82208333333333;5,80763888888889;6,06222222222222
"Rio Quilimari Entre Cajon Ingienillo y Desembocadura";1,82666666666667;2,11375;3,07833333333333;2,16454545454545;3,16958333333333;4,08939814814815;4,35712121212122;4,54873842592593;3,15111111111111;4,30344907407408;3,57215277777777;2,52736111111111;2,7605909090909;4,90625;3,83794444444445;2,27666666666667;1,85083333333333;2,15121527777778;3,0136574074074;3,72204166666666;3,38849747474748;4,09323737373738;4,4574537037037;5,64694444444445;5,05538194444444;3,37083333333333;5,59531172839506;2,81104166666667;11,2714583333333;9,46340277777778;6,57055555555556
