"Nombre_subcuenca";"1991";"1992";"1993";"1994";"1995";"1996";"1997";"1998";"1999";"2000";"2001";"2002";"2003";"2004";"2005";"2006";"2007";"2008";"2009";"2010";"2011";"2012";"2013";"2014";"2015";"2016";"2017";"2018";"2019";"2020";"2021";"2022";"2023"
"Petorca Medio";0,253420976704315;1,2715805881164;0,414459668771328;-0,815678934633535;-0,648588149091093;-0,526131394887159;1,74915349503731;-1,0143895453672;-0,555589306007057;0,823942428082086;0,476137507147176;1,84052742184625;0,101597985132904;0,38832747388367;0,282779044117919;0,449721668721999;-0,161285955715525;0,109566597160048;0,173141639207748;-0,0429980602102054;-0,41666896983082;-0,609229711170875;-0,731290311467479;-0,818915966958139;-0,389599696003767;0,483401449526671;0,245076284073942;-0,317721353451873;-1,84048458957902;-0,673369443167807;-1,50948929375221;-0,714899506686497;-0,617983869313109
"Rio Ligua Alto (Estero Alicahue)";0,619396785000025;1,4729995448428;0,369740369035488;-0,930316542828539;-0,481623414752479;-0,72600989349786;1,6510762943557;-0,626590201621529;-0,572267070471324;0,924885029701621;0,4953792157629;1,52870415037299;0,0868558457542337;0,410632152569798;0,719416584019486;0,491329679723072;0,023563021345148;0,599683053755951;0,185784476381571;-0,025829608684624;-0,341401793517697;-0,732118639670579;-1,01588736118261;-0,791048828411042;-0,192182615794694;0,590101864432168;0,014501448048805;-0,810020291633707;-4,0533537085488;-1,32472155674156;-1,46280260002182;-1,30176074799485;-1,55226593191834
"Rio Ligua Bajo (Entre Estero Los Angeles y Desembocadura)";0,0721718380801417;1,35557741365724;0,274291679097473;-1,01539199676219;-0,525128048431299;-0,609060426907091;1,88372041764203;-0,815818685526968;-0,549463990953864;0,902917926429103;0,454499801388415;1,72979000144951;0,0287579151974986;0,358077944497488;0,549834900998074;0,570229550676076;-0,179791967133646;0,223433389647082;0,0409285961411588;-0,229142322749553;-0,722838305376003;-0,307937972158473;-0,246046035569772;-0,7961625239386;-0,636104904200448;0,529400094765247;0,263104692554685;-0,368500698522137;-1,74735091904013;-0,870114396463806;-1,42655135909006;-1,01222449811673;-0,802167303553887
"Rio Ligua Medio (entre Quebrada La Cerrada y Los Angeles)";0,333272082048635;1,13112367052025;0,283658801183014;-1,19540333037779;-0,803125408749293;-0,723377110589238;1,88282502528857;-0,705624216275546;-0,456248313141562;0,87775718791065;0,552757813271461;1,60625374081183;0,0378081173891618;0,355031589280934;0,588262312268084;0,588141820390646;-0,00305576384605614;0,333713688888586;0,0375155757240215;-0,214533993178653;-0,636051054729653;-0,203501406154901;-0,426901404446198;-0,785276949141801;-0,161360995915813;0,601725516636756;0,307677730658467;-0,645014513688995;-1,89481490812204;-0,742654166115779;-1,91466590399201;-2,89007252397228;-1,45084483474108
"Rio Petorca Alto (hasta despues Junta Rio Sobrante)";0,373914485140836;1,49448601355071;0,303192157353204;-1,0013103154218;-0,640348026495211;-0,67261759421079;1,65745662728137;-0,382847061011122;-0,279805371843325;1,09030373122646;0,773462270708215;1,61006399090806;-0,240758912469753;0,392664921572347;0,153397705552621;0,423129865805062;0,0887265076656258;0,137146302572771;0,163787394535623;0,0747777728876755;-0,318099934484566;-0,967222510735194;-1,10933194465075;-0,979156615074253;-0,185618735492864;0,651086986703677;0,662911212971847;-0,334533263451139;-1,76697569351343;-0,399547466943344;-1,11036257528239;-0,632965439198237;-1,45498676435135
"Rio Petorca Bajo (Entre Las Palmas y Desembocadura)";0,104094028854412;1,35044534434139;0,339538139001824;-0,76326445360012;-0,640533204669746;-0,892440339318959;1,73728941681082;-1,1934599824885;-0,438742318466083;0,7993118669012;0,448671312563148;1,73838616351695;-0,0657380538085373;0,241566780894112;0,544498030727785;0,593949115973687;-0,277495369785605;0,00466003145424967;-0,0745889217251695;-0,117510591658328;-0,643028951859806;-0,234520344832257;-0,140829599592758;-0,937434333314199;-0,265525463293615;0,578892038595052;0,446330025462907;-0,34642020202749;-1,93526635507099;-0,925523523022323;-1,96046088042536;-1,08659385520612;-0,558579415360175
"Rio Quilimari Entre Cajon Ingienillo y Desembocadura";0,20896911882327;1,47638512793552;0,193220106618332;-0,775346088617287;-0,536827909221368;-0,451941221536915;1,95207526007064;-1,07441222993558;-0,35907457233949;1,1366269955789;0,483588611204286;1,62524541590878;0,130831081029083;-0,0406805485741165;0,3850629631505;0,513758349264692;-0,331832464801914;-0,185072775166704;0,0350858775356936;-0,00316301744420155;-0,324835187000509;-0,159812698256065;-0,505477070977751;-0,73319991575729;-0,205899430537338;0,189115572110699;0,515580233756156;-0,899004515544467;-1,57340026937681;-0,642340329985743;-1,39638454131795;-0,934033530872473;-0,883296963695466
"Rio Quilimari hasta muro Embalse Culimo";0,30368506855562;1,42492250436998;0,331738144816755;-0,86810428794834;-0,539141215536256;-0,688300044970987;1,62183032087144;-1,01103829201739;-0,483045748840214;0,642211391896857;0,496286129645925;1,75872221844659;-0,0080557766998099;0,272382525105754;0,315766732062831;0,298731260436716;-0,38870540338611;0,111520968027517;0,118847547992575;-0,184395864079901;-0,421631451964865;-0,704777520322303;-0,664484253950737;-0,66410009815042;-0,132104710890731;0,655519578818342;0,715870126981022;-0,121162111361815;-1,878264071894;-0,740778873621775;-1,46632890472621;-0,968678779071841;-0,968779278693088
