"Nombre_subcuenca";"1989";"1990";"1991";"1992";"1993";"1994";"1995";"1996";"1997";"1998";"1999";"2000";"2001";"2002";"2003";"2004";"2005";"2006";"2007";"2008";"2009";"2010";"2011";"2012";"2013";"2014";"2015";"2016";"2017";"2018";"2019";"2020";"2021";"2022";"2023"
"Costeras entre Rios Quilimari y Petorca";2;75;295,6;513,3;196,9;139,1;160,4;143,4;760,1;35,4;246,6;397,9;317,5;766,6;151,9;315,8;254,3;297,4;133,2;239,3;216,7;216,4;157,4;248,1;218,1;146,166666666667;218,5;227,4;364,3;155,6;2,3;243,7;43,2;193,947426470588;129,041176470588
"Petorca Medio";3,05;87,55;304,741666666667;380,65;223,25;118,05;136,183333333333;147,275;635,2;37;228,041666666667;324,1;267,025;550,65;175,6;289,025;225,925;279,325;143,125;240,325;222,825;194,7;139,55;157,675;100,175;147,85;197,4;252,8;236,9;159,325;33,3142857142857;172,561111111111;57,9111111111111;263;90,975
"Rio Ligua Alto (Estero Alicahue)";2,16666666666667;108,633333333333;370,333333333333;433,766666666667;240,8;119,666666666667;162,866666666667;142,083333333333;650,916666666667;74,5;248,05;370,116666666667;287,483333333333;504,866666666667;184;343,833333333333;293,966666666667;284,566666666667;182,566666666667;328,266666666667;224,3;228,3;143,433333333333;141,9;83,5;174,7;209,633333333333;296,666666666667;223,316666666667;116,683333333333;19,8333333333333;137,05;68,5333333333333;112,233333333333;85,3
"Rio Ligua Bajo (Entre Estero Los Angeles y Desembocadura)";2,42;97,995;307,505;453,55;212,815;131,59;186,28;127,66;726,44;43,22;268,56;370,425;302,78;586,35;165,9;326,62;297,38;344,66;148,06;273,225;231,8130000002;209,685;146,44;239,38;165,46;144,29;225,4;309,321666667267;301,983333333333;158,72;37,44;187,6;87,3166666666667;154,8;168,85
"Rio Ligua Medio (entre Quebrada La Cerrada y Los Angeles)";2,83333333333333;107,366666666667;331,5;368,166666666667;221,766666666667;101,8;136,75;135,466666666667;730,883333333333;48,4333333333333;272,158333333333;340,766666666667;295,666666666667;518,466666666667;184,666666666667;318,7;288,8;320,566666666667;173,733333333333;284,966666666667;215,466666666667;193,666666666667;124,166666666667;232,6;130,566666666667;159,316666666667;250,616666666667;285,6;251,433333333333;123,3;41,2809523809524;172,561111111111;36,5411111111111;28,8;166,2
"Rio Petorca Alto (hasta despues Junta Rio Sobrante)";1,1;65;274,8;348,2;174,2;87,2;112,8;107;516,833333333333;60,8;212,858333333333;326,5;227,7;403,9;112,7;261,8;160,3;234,8;143,5;194,2;189,5;184;110;87,1;69,4;117;177,2;224,835;245,7;123,98;29,4809523809524;172,561111111111;65,0138383838384;130,992307692308;48,6
"Rio Petorca Bajo (Entre Las Palmas y Desembocadura)";1,43333333333333;85,8;309,3;434,733333333333;218,633333333333;139,466666666667;162,3;126,4;672,983333333333;30,7333333333333;271,833333333333;326,733333333333;287,366666666667;546,933333333333;167,3;287,316666666667;259,366666666667;316,3;148;211,033333333333;226,6;207,333333333333;156,433333333333;242,066666666667;155,85;151,5;266,033333333333;272,4;302,6;172,366666666667;43,35;159,55;55,05;178,1;189,2
"Rio Quilimari Entre Cajon Ingienillo y Desembocadura";2,3;83,9;319,7;488,6;200,6;126,6;160,5;162,5;770,3;20,4;317,6;396,195238095238;284,4;563,727272727273;179,5;247,1;297,6;301,1;128,5;206;247,9;204,8;162,5;232,4;108,7;170,8;226,5;210,2;320,7;85,2905263157895;61,0809523809524;172,561111111111;65,0138383838384;134,881196581197;169,1
"Rio Quilimari hasta muro Embalse Culimo";1,5;92,1;318,25;443,75;218,55;124,2;160,95;129,5;667,05;31,05;264,05;285,45;297,8;537;170,85;289,15;253,6;254,4;133,8;270,05;224,55;186,1;152,2;168,95;104,15;172,6;250,613157894737;297,435;297,8;181,183333333333;33,9809523809524;172,561111111111;65,0138383838384;136,231196581197;113,4
