"Codigo_nacional","R2"
"01000005-K","0.999319641945849"
"01001005-5","0.999673104952427"
"01010007-0","0.999471078060069"
"01010010-0","0.999441162070421"
"01020002-4","0.998858756732054"
"01020014-8","0.99923741781617"
"01020016-4","0.998967944875746"
"01020017-2","0.999430685179698"
"01020018-0","0.921545168018124"
"01021002-K","0.997998380347029"
"01021007-0","0.999587151656009"
"01030003-7","0.999012029039967"
"01041003-7","0.999591903669521"
"01041004-5","0.998546034824781"
"01042001-6","0.999241196606176"
"01042002-4","0.999830283323437"
"01044001-7","0.368484415763729"
"01050007-9","0.999558909824287"
"01050009-5","0.999235829532047"
"01050010-9","0.999861480727478"
"01051004-K","0.99638313177146"
"01080001-3","0.999749884311774"
"01080002-1","0.988764594583402"
"01200002-2","0.99982373528251"
"01200003-0","0.999476763670045"
"01201003-6","0.997836581800566"
"01201005-2","0.998918508685107"
"01201010-9","0.999420116848015"
"01202009-0","0.998585582706401"
"01202010-4","0.99904010063274"
"01202012-0","0.998999847977156"
"01211006-5","0"
"01300006-9","0.999320589527248"
"01300007-7","0.998765220703343"
"01300008-5","0.999713537054023"
"01300009-3","0.997981597468671"
"01310018-7","0.99391287852096"
"01310019-5","0.994400512786053"
"01310022-5","0.999992786250527"
"01410012-1","0.999208616970333"
"01502007-5","0.99803910053655"
"01502008-3","0.999259110146582"
"01502009-1","0.996973359066199"
"01610004-8","0.998906987122042"
"01611001-9","0.999561167255678"
"01700009-8","0.999790845262522"
"01700010-1","0.992579013153206"
"01720006-2","0.999119658483773"
"01730007-5","0.997780874315368"
"01730017-2","0.999304241981751"
"01730018-0","0.999172066074299"
"01730019-9","0.999283963112319"
"01730020-2","0.999913278936186"
"01740001-0","0.999205725633432"
"01740002-9","0.99843488468652"
"01750002-3","0.549466043125234"
"01750003-1","0.998799663401515"
"01770001-4","0.999694773232724"
"01820001-5","0.992979619957313"
"02000001-5","0.994841254805501"
"02020001-4","0.999045603736902"
"02020002-2","0.997498188652028"
"02101001-4","0.996430714469838"
"02101003-0","0.999687229170712"
"02102005-2","0.999700391255406"
"02103007-4","0.990316904554523"
"02103008-2","0.997249967702608"
"02103009-0","0.998243507459314"
"02103010-4","0.999126780916269"
"02103012-0","0.999910423760947"
"02103014-7","0.999953035453597"
"02104002-9","0.996465310310352"
"02104007-K","0.99814967416185"
"02104008-8","0.999448929429006"
"02104009-6","0.975150457807315"
"02104010-K","0.989079579216282"
"02105001-6","0.999907383271122"
"02105002-4","0.997404434572827"
"02105014-8","0.998890394472377"
"02105015-6","0.991169738898625"
"02105016-4","0.998420369516284"
"02105017-2","0.9983737036817"
"02105018-0","0.998416633470693"
"02105020-2","0.99859076669595"
"02105021-0","0.998444949536583"
"02105022-9","0.999707837420765"
"02110013-7","0.996287339928763"
"02111004-3","0.99998032357997"
"02112008-1","0.96840374148596"
"02112009-K","0.883361549545619"
"02113001-K","0.99948994580004"
"02113005-2","0.999809757787411"
"02210002-5","0.969348159755325"
"02240000-2","0.995024618390406"
"02240001-0","0.997758552707327"
"02240002-9","0.0754464979202899"
"02240003-7","0"
"02240004-5","0.74103864606493"
"02240005-3","0.993524616230587"
"02300000-8","0.99927338739915"
"02500015-3","0.998222963975636"
"02500016-1","0.993621948404607"
"02500017-K","0.99877397593799"
"02500019-6","0.996871579621445"
"02500020-K","0.99870844132387"
"02500021-8","0.999022469558766"
"02500026-9","0.776934550041734"
"02500027-7","0.999003165126845"
"02510006-9","0.999483236223996"
"02510007-7","0.999122785969142"
"02700001-0","0.926952270182074"
"02710002-3","0.987524723541737"
"02710003-1","0.992751226859501"
"02760000-K","0.992840864565483"
"02900000-K","0.957321639149332"
"02900001-8","0.993752907541065"
"02942001-7","0.994168781973088"
"02943001-2","0.994320168706229"
"02943002-0","0.99777534536477"
"02943003-9","0.999780144416686"
"03210001-5","0.994177450856201"
"03340001-2","0.996174495295519"
"03404002-8","0.999301406483042"
"03414002-2","0.995666130420659"
"03421004-7","0.997283167474682"
"03430003-8","0.999055910735532"
"03430006-2","0.997669542085672"
"03430007-0","0.997221230375881"
"03431001-7","0.990257281111081"
"03431004-1","0.998456047455716"
"03441001-1","0.995891931473138"
"03450004-5","0.996111784678362"
"03604001-7","0.996002967847805"
"03701001-4","0.993814828295849"
"03802004-8","0.999643953379402"
"03802005-6","0.999126492579237"
"03802006-4","0.999095717558777"
"03804005-7","0.999541989162709"
"03804006-5","0.999294718840098"
"03804007-3","0.995969856142252"
"03806002-3","0.994441802146294"
"03814003-5","0"
"03815004-9","0.998359950920431"
"03820001-1","0.999278419122872"
"03820004-6","0.997763311323392"
"03823003-4","0.998154048591878"
"03823004-2","0.99403135775706"
"03825004-3","0.998777309265877"
"03826002-2","0.999247134994108"
"03826003-0","0.996299657391118"
"03940001-4","0.99750023290908"
"04120001-4","0.99921330630488"
"04301005-0","0.999446500528994"
"04302001-3","0.922002646155868"
"04302014-5","0.998403030478983"
"04306002-3","0.999280766511304"
"04308001-6","0.999767217268889"
"04308003-2","0.998922776578084"
"04311003-9","0.999227700186378"
"04311004-7","0.999139921595798"
"04311005-5","0.998855001604732"
"04313003-K","0.998805282399159"
"04314003-5","0.997904813980966"
"04320001-1","0.999293462513662"
"04320003-8","0.998965420931723"
"04323007-7","0.997814154674562"
"04335002-1","0.99902906304245"
"04400002-4","0.885488051044133"
"04501003-1","0.999192950463699"
"04502005-3","0.999331471973266"
"04503003-2","0.998181771953597"
"04506007-1","0.998793722777932"
"04511002-8","0.999422945567873"
"04511003-6","0.99960417096907"
"04512002-3","0.999212251878345"
"04513003-7","0.999396846040014"
"04513004-5","0.998950446969447"
"04520005-1","0.933530487309224"
"04522003-6","0.999371479490707"
"04531002-7","0.998216040766208"
"04531003-5","0.999189158662163"
"04532006-5","0.999023792358848"
"04535001-0","0.999044019598648"
"04537003-8","0.998728455241453"
"04540005-0","0.998857466505772"
"04540006-9","0.998614544682716"
"04551005-0","0.99934571610896"
"04552002-1","0.999266360641236"
"04554003-0","0.9995505132426"
"04555001-K","0.993265740761426"
"04610001-8","0.999620296420581"
"04703002-1","0.999570414085349"
"04703003-K","0.999684579071141"
"04704001-9","0.994371567107119"
"04710001-1","0.999288236612116"
"04711001-7","0.999313161160404"
"04711003-3","0.999561971081635"
"04711004-1","0.999330871266305"
"04712001-2","0.996150489878058"
"04713004-2","0.999377707546239"
"04716005-7","0.999709333992729"
"04721002-K","0.999645637382165"
"04723001-2","0.98954044291724"
"04723002-0","0.999648619408378"
"04726001-9","0.999423077431622"
"04726003-5","0.999671011048968"
"04730004-5","0.99975449320811"
"04732001-1","0.999615644233855"
"04810001-5","0.995333362089639"
"04810003-1","0.999705982886193"
"04820001-K","0.999304951523963"
"04900002-2","0.999848946308116"
"04900003-0","0.999752730082597"
"04902002-3","0.999414016026295"
"04902003-1","0.998791934052096"
"05100001-3","0.996301729608312"
"05100006-4","0.999785494852662"
"05101005-1","0.999714734234613"
"05101006-K","0.999622885510375"
"05110002-6","0.999560776988496"
"05110003-4","0.999792505081104"
"05111001-3","0.999817935581111"
"05111002-1","0.999304886071919"
"05111004-8","0.999833387842555"
"05120003-9","0.999784649803655"
"05120004-7","0.999561643242278"
"05120006-3","0.999543385381558"
"05200001-7","0.999284373851055"
"05200006-8","0.999510065939133"
"05200007-6","0.999667290331008"
"05210002-K","0.999738818351603"
"05211003-3","0.999671766229521"
"05211004-1","0.999441870663239"
"05220006-7","0.999436643921005"
"05220007-5","0.997314868154522"
"05221005-4","0.999656094293524"
"05310001-5","0.998860778268538"
"05320001-K","0.918904209414596"
"05401003-6","0.996029961176189"
"05403002-9","0.999288431744133"
"05403006-1","0.998835899829801"
"05404001-6","0.999047824934913"
"05410002-7","0.998416649322971"
"05410005-1","0.999259743437038"
"05410006-K","0.999374339243987"
"05410007-8","0.999501722192874"
"05410008-6","0.999605105327765"
"05411001-4","1"
"05414001-0","0.998964297467168"
"05414004-5","0.999324047035028"
"05414005-3","0.999798662655017"
"05415004-0","0.998941655832822"
"05421005-1","0.999718454160846"
"05422002-2","0.999785862696044"
"05423003-6","0.99934734854733"
"05423013-3","0.999719500863933"
"05424005-8","0.999524163891836"
"05425003-7","0.999620684107577"
"05426004-0","0.999489401482997"
"05427006-2","0.999426154272459"
"05427007-0","0.998731791360892"
"05427008-9","0.999547866046524"
"05500001-8","0.999318262884511"
"05500003-4","0.996901476213896"
"05510001-2","0.998384054729628"
"05510002-0","0.999035570808274"
"05510005-5","0.999393533143026"
"05520001-7","0.999298526620474"
"05520002-5","0.997971744751291"
"05530002-K","0.998616562522811"
"05530003-8","0.997653753624728"
"05701005-3","0.999609075633807"
"05702001-6","0.999036811701863"
"05703008-9","0.998773211682547"
"05704002-5","0.999210795848098"
"05704004-1","0.999266752691378"
"05704006-8","0.999303185361727"
"05705001-2","0.998035816946624"
"05706001-8","0.999204166424931"
"05706003-4","0.975119403683327"
"05707003-K","0.999544368690701"
"05710001-K","0.999164203610995"
"05710007-9","0.999653080139964"
"05711003-1","0.998390795357612"
"05716001-2","1"
"05716004-7","0.998977843765555"
"05716005-5","0.998960897480343"
"05717008-5","0.999317790252148"
"05720001-4","0.999433474615844"
"05720003-0","0.999219675625003"
"05721001-K","0.9950754319309"
"05721016-8","0.999462037497785"
"05722001-5","0.999016823184779"
"05722002-3","0.999637385925904"
"05723001-0","0.999247306316579"
"05730008-6","0.999682460594509"
"05730012-4","0.999434855721376"
"05730013-2","0.999467112436476"
"05730014-0","0.999570039124218"
"05730016-7","0.999815019161498"
"05730039-6","0.999532325410363"
"05732001-K","0.99966109065265"
"05732002-8","0.999340906088447"
"05733006-6","0.999661100177995"
"05733007-4","0.999220547107817"
"05733008-2","0.999295285467543"
"05733010-4","0.998723080104568"
"05737002-5","0.99891082835717"
"05737008-4","0.99840485304903"
"05740004-8","0.999040822374859"
"05740005-6","0.999054171868868"
"05741002-7","0.99920803874946"
"05744002-3","0.999608148139676"
"05744003-1","0.999053669858228"
"05745001-0","0.999528407590194"
"05746001-6","0.998491116359327"
"05747001-1","0.9988911450757"
"05748001-7","0.997895132361252"
"05748003-3","0.998838492953497"
"05800002-7","0.998994472457184"
"06000003-4","0.998977233235873"
"06003001-4","0.998885798057432"
"06006001-0","0.999412146567507"
"06008009-7","0.99156423625286"
"06010015-2","0.999487557854767"
"06010016-0","0.999190537060801"
"06011001-8","0"
"06011003-4","0.999600087483683"
"06012003-K","0.999091244005447"
"06013001-9","0"
"06013005-1","0.998803277947495"
"06013006-K","0.999457969169156"
"06013008-6","0"
"06015003-6","0.998814743866782"
"06016004-K","0.999225794934269"
"06018009-1","0.999602522410737"
"06018010-5","0.999165349459576"
"06019003-8","0.998157574884185"
"06019005-4","0.999225991125476"
"06027001-5","0"
"06027003-1","0.999442883500017"
"06028001-0","0.998782915827683"
"06034003-K","0.998954533007648"
"06036001-4","0.998944661186963"
"06040001-6","0.999613004994781"
"06042004-1","0.999349119075609"
"06044001-8","0.999359905514909"
"06055003-4","0.998991688272382"
"06120001-0","0.999244369931727"
"06130001-5","0.99877255425351"
"06130002-3","0.998547024838275"
"06130003-1","0.996965287555212"
"06132002-4","0.998760926349979"
"07103003-2","0.998964348242445"
"07104002-K","0.99878194078709"
"07104005-4","0.998575713712045"
"07106007-1","0.998861921160599"
"07115001-1","0.996085659689317"
"07116004-1","0.998572733772964"
"07116005-K","0.998783345210224"
"07118003-4","0.998994735423092"
"07119007-2","0.999110427059125"
"07120002-7","0.995843839539152"
"07121003-0","0.999394421817434"
"07123001-5","0.998420905814015"
"07200001-3","0.99858817842649"
"07210001-8","0.998338745456258"
"07303000-5","0.997528349031227"
"07317001-K","0.998232870878904"
"07317005-2","0.996652947139677"
"07320002-4","0.997248366680404"
"07320003-2","0.998285127748639"
"07321002-K","0.998439108461505"
"07330001-0","0.981474890698466"
"07331002-4","0.998604426139242"
"07332003-8","0.998529490198077"
"07335004-2","0.999161838996536"
"07336003-K","0.998523049522287"
"07337002-7","0.999093306184131"
"07340002-3","0.998585215791277"
"07340003-1","0.998735935528343"
"07341002-9","0.999237672688111"
"07342002-4","0.997857900965626"
"07345001-2","0.998188754548208"
"07350001-K","0.997651447808"
"07350006-0","0.997979414488915"
"07350007-9","0.998425997563656"
"07352002-9","0.998519446699185"
"07352003-7","0.999114760262556"
"07353001-6","0.99797382633113"
"07355002-5","0.997881730436554"
"07355006-8","0.997825975710571"
"07355007-6","0.998695377403523"
"07357003-4","0.998531748262417"
"07358007-2","0.99751185878464"
"07358008-0","0.998482483334305"
"07359001-9","0.998422439681513"
"07359005-1","0.997838430929627"
"07370001-9","0.9988385602604"
"07371002-2","0.99922207886617"
"07373003-1","0.998990531691488"
"07373004-K","0.998015861010982"
"07374004-5","0.998250333594423"
"07374005-3","0.99795509563747"
"07376002-K","0.997356448077942"
"07378002-0","0.997795349388012"
"07378003-9","0.998004029068296"
"07379002-6","0.997900500056262"
"07381003-5","0.999233881723444"
"07383001-K","0.998776580777435"
"07384002-3","0.998528659812197"
"08105004-K","0.997912593593426"
"08105005-8","0.998082799383964"
"08106002-9","0.993878070258073"
"08106003-7","0.998587983125503"
"08113001-9","0.998511244677314"
"08117002-9","0.998206571648259"
"08117006-1","0.991786647254841"
"08117009-6","0.995408970624944"
"08118003-2","0.998785930698276"
"08118004-0","0.999134299463245"
"08122002-6","0.998164305894826"
"08122003-4","0.996935664143849"
"08123004-8","0.998468778007691"
"08124004-3","0.99828965386973"
"08124005-1","0.997746527835158"
"08130002-K","0.989925943032538"
"08130003-8","0.998105651296217"
"08130004-6","0.998697509362017"
"08130006-2","0.99779278012361"
"08130007-0","0.998785397941187"
"08132002-0","0.998796922204642"
"08133003-4","0.998991739710287"
"08135003-5","0.998229748235452"
"08135004-3","0.997313395460186"
"08140001-6","0.997685277433124"
"08140005-9","0.99530370849589"
"08141001-1","0.996797135049684"
"08141002-K","0.999381879122883"
"08142001-7","0.99799918374171"
"08210002-4","0.998447543662478"
"08210003-2","0.996437273364078"
"08220006-1","0.998168489008238"
"08220008-8","0.996162904566255"
"08301001-0","0.997349053566949"
"08304004-1","0.996291112618217"
"08307002-1","0.998425784128153"
"08312002-9","0.99424736392209"
"08313002-4","0.998695960489577"
"08316001-2","0.99903176730376"
"08316002-0","0.977561855175992"
"08317001-8","0.997262472348605"
"08317003-4","0.998882948362796"
"08317004-2","0.992181345597103"
"08317005-0","0.992765147472247"
"08318002-1","0.998900989777178"
"08319001-9","0.994037053246811"
"08319002-7","0.998596046587596"
"08320001-4","0.997637842467296"
"08323001-0","0.978416069311721"
"08324001-6","0.999549490794858"
"08330002-7","0.997553696391878"
"08332002-8","0.998010927536068"
"08334001-0","0.992505220042765"
"08334002-9","0.998693886019268"
"08343001-K","0.989698845425029"
"08343002-8","0.99759671452579"
"08350002-6","0.998407871735972"
"08351001-3","0.996085776590141"
"08351003-K","0.999214867108718"
"08353001-4","0.9975052543746"
"08358002-K","0.99914254336343"
"08358003-8","0.997171142251419"
"08358004-6","0.998489966100814"
"08358005-4","0.995645989793987"
"08364001-4","0.997322813251765"
"08366002-3","0.991142543994707"
"08367001-0","0.999013135656424"
"08380001-1","0.998733408549508"
"08381003-3","0.986067488345471"
"08393002-0","0.983615495707361"
"08394001-8","0.996359045422368"
"08394006-9","0.999232750754642"
"08410001-3","0.997963325383684"
"08410002-1","0.998176756975497"
"08520000-3","0.998670053652473"
"08700001-K","0.996738332590646"
"08700002-8","0.995369133428753"
"08700003-6","0.992467789963752"
"08821005-0","0.996966489326598"
"08821006-9","0.995535831979041"
"08822008-0","0.998435418385028"
"08930000-2","0.993658249145481"
"09101003-8","0.997991208642628"
"09102003-3","0.998006751294658"
"09104003-4","0.998708270845877"
"09105002-1","0.997511636297558"
"09111002-4","0.998371532611858"
"09112000-3","0.995867354711221"
"09113003-3","0.998172301117973"
"09114001-2","0.996990106741295"
"09116001-3","0.996882012717867"
"09116002-1","0.997780856486019"
"09120003-1","0.998515503435738"
"09122001-6","0.998364140451327"
"09123001-1","0.992538114421024"
"09123002-K","0.998540111661984"
"09124001-7","0.998959376938036"
"09129002-2","0.998560189848179"
"09129005-7","0.998687054730076"
"09129006-5","0.989168867753019"
"09130001-K","0.998492180789768"
"09131002-3","0.998585815715279"
"09135003-3","0.998973187734393"
"09140001-4","0.987226388593939"
"09140002-2","0.996932146082775"
"09151001-4","0.996329114208835"
"09153001-5","0.997393445269944"
"09400000-9","0.995071774621048"
"09401001-2","0.998614201768115"
"09403001-3","0.99937172565097"
"09404002-7","0.999231799030967"
"09404003-5","0.998454679238707"
"09405001-4","0"
"09412002-0","0.999558985697571"
"09412003-9","0.998379544360955"
"09414002-1","0.998829621638948"
"09416002-2","0.999069408387553"
"09417001-K","0.999025404754282"
"09417002-8","0.999402783097772"
"09420002-4","0.998330612745411"
"09420003-2","0.997032665223292"
"09420004-0","0.999038698691915"
"09433003-3","0.999120503489034"
"09437002-7","0.996695630604082"
"09438001-4","0.999309512142087"
"09439001-K","0.999271700984013"
"10100002-8","0.999416153531451"
"10100004-4","0.999523721204396"
"10100005-2","0.999651956837777"
"10102002-9","0.999347304381222"
"10106001-2","0.998094716636898"
"10106002-0","0.998625515718353"
"10106003-9","0.998924557938647"
"10111002-8","0.999336146967636"
"10122003-6","0.99762951260067"
"10123004-K","0.999361574643765"
"10123006-6","0.999453841216407"
"10130001-3","0.998440846609285"
"10133000-1","0.99703477301231"
"10134002-3","0.996986688393388"
"10137002-K","0.997909265421871"
"10141001-3","0.999312773594919"
"10304002-7","0.998906878666165"
"10305002-2","0.997526666719998"
"10307001-5","0.997639410849726"
"10312001-2","0.998465470218097"
"10313001-8","0.991839907486133"
"10322002-5","0.999621090175471"
"10323002-0","0.99965939564002"
"10328001-K","0.995745592293063"
"10340001-5","0.998217925629557"
"10340002-3","0.998901260804726"
"10350001-K","0.997871613165971"
"10354001-1","0.999739274125223"
"10355001-7","0.998534413011905"
"10355003-3","0.994432873577176"
"10356001-2","0.999012691063385"
"10371001-4","0.9995464021049"
"10372001-K","0.9991963067511"
"10401002-4","0.998558383887354"
"10410004-K","0.999486560883963"
"10410005-8","0.999441938539044"
"10410015-5","0.996764695122516"
"10417001-3","0.999760153830646"
"10425001-7","0.999753869975848"
"10430001-4","0.999568901477593"
"10430005-7","0.993984816217217"
"10432004-K","0.998940243217524"
"10512000-1","0.999506137261653"
"10520001-3","0.999064012996934"
"10523001-K","0.999294246221281"
"10610001-2","0.99953468658481"
"10683001-0","0.999483470183452"
"10701001-7","0.999857864957798"
"10704001-3","0.999420650571213"
"10704002-1","0.998702066891391"
"10710001-6","0.999898260201926"
"10900001-9","0.999737766397951"
"10900002-7","0.998942242095614"
"10901002-2","0.999401648711453"
"10901003-0","0.998004140681146"
"10901004-9","0.995204294302546"
"10902002-8","0.999255511418707"
"10903003-1","0.999291069929964"
"10904005-3","0.99887522955481"
"10906004-6","0.999240986561257"
"11023001-K","0.999681877457408"
"11023002-8","0.999471373978965"
"11031001-3","0.999374692564981"
"11033001-4","0.999807321109844"
"11034001-K","0.999646608114557"
"11041001-8","0.999418463348446"
"11043001-9","0.99985598596473"
"11120001-7","0.999006710495861"
"11140001-6","0.996942426073447"
"11143003-9","0.99931274226933"
"11144002-6","0.999704752439045"
"11147003-0","0.999656192722635"
"11180000-6","0.999727050474914"
"11300001-5","0.999360499829372"
"11302002-4","0.998102875051793"
"11304001-7","0.999393365872758"
"11307002-1","0.999181447232413"
"11310003-6","0.999723317301989"
"11316003-9","0.999668425750811"
"11316004-7","0.999637815014215"
"11317001-8","0.99910187673792"
"11317005-0","0.999379725430232"
"11318002-1","0.999756413803567"
"11342001-4","0.998999768845022"
"11342002-2","0.999607027099252"
"11400001-9","0.999244348717074"
"11503001-9","0.998798058744596"
"11505001-K","0.99923258548129"
"11511001-2","0.998735849728425"
"11513001-3","0.999600720955793"
"11517002-3","0.992639417191948"
"11521002-5","0.99970109278755"
"11521005-K","0.990134835949853"
"11523001-8","0.999399488851236"
"11523002-6","0.998437441861433"
"11532000-9","0.998978885421923"
"11533001-2","0.999298763594041"
"11536001-9","0.998577942087336"
"11536004-3","0.999040977634826"
"11540000-2","0.962381789740085"
"11541000-8","0.998485181399852"
"11546001-3","0.999252092054573"
"11700001-K","0.996231148561267"
"11701002-3","0.999028310758769"
"11702000-2","0.999621073638948"
"11704001-1","0.999224517190589"
"11706000-4","0"
"11711000-1","0.998435972829515"
"11800000-5","0"
"12125001-2","0.997687873966891"
"12125002-0","1"
"12271000-9","0.88943356007838"
"12280002-4","0.999862118341017"
"12280004-0","0.995477663184016"
"12280006-7","0.996535798394785"
"12283001-2","0.99901805499386"
"12283003-9","0.997255631334379"
"12284006-9","0.99927142459355"
"12284009-3","0.997847357898553"
"12284010-7","0.99961245220638"
"12286001-9","0.99521967023101"
"12286002-7","1"
"12287002-2","0.998651057366955"
"12288003-6","0.940178449053879"
"12289001-5","0.997218792961725"
"12293001-7","0.992188570548484"
"12400001-7","0.999614051816608"
"12400002-5","0.998605533154185"
"12400003-3","0.992559908185708"
"12402000-K","0.999057378142011"
"12403000-5","0.956470652637489"
"12440001-5","0.999534155041118"
"12448001-9","0.987282296126997"
"12449001-4","0.999673323973698"
"12449002-2","0.998620036438185"
"12452001-0","0.998379102106894"
"12452002-9","0.999459305824717"
"12454001-1","0.999791673097272"
"12530001-4","0.995456110378018"
"12540001-9","0.996546698964046"
"12582001-8","0.996841779715258"
"12582002-6","0.99942159448636"
"12582003-4","0.998437328244176"
"12585003-0","0.998865865202421"
"12586001-K","0.999348299538486"
"12586004-4","0.998758483047438"
"12586005-2","0.999378900247388"
"12586006-0","0.998680180914491"
"12586007-9","0.999820966902703"
"12586009-5","0.999315317056448"
"12586010-9","0.997495263209213"
"12587000-7","0.99916361036058"
"12600001-4","0.999671339624339"
"12620000-5","0.998964420123805"
"12622001-4","0.993086018904666"
"12622002-2","0.99859767635098"
"12640001-2","0.998432590769073"
"12680001-0","0.998292592016814"
"12802001-2","0.997913948898962"
"12802002-0","0.998192830082114"
"12803000-K","0.997126445852916"
"12806004-9","0.999690069766566"
"12809001-0","0.998836091576172"
"12815001-3","0.997451597791857"
"12816001-9","0.999709830974646"
"12820001-0","0.999392260626285"
"12820002-9","0.999221731401978"
"12821000-8","0.989480724730405"
"12825002-6","0.999665296940849"
"12863001-5","0.99911053934687"
"12873001-K","0.999884103019618"
"12875000-2","0.997846506765374"
"12876001-6","0.99955791725854"
"12876002-4","0.999677126717951"
"12876003-2","0.999768022616891"
"12878002-5","0.996300910644062"
"12879000-4","0.998532959496911"
"12930001-9","0.996965090185273"
"12930003-5","0.999079602604591"
"12930004-3","0.999244487138643"
"12930005-1","0.999735291910673"
"01000005-K","0.99931964194585"
"01001005-5","0.999673104952427"
"01010007-0","0.999471078060069"
"01010010-0","0.99944116207042"
"01020002-4","0.998858756732054"
"01020014-8","0.99923741781617"
"01020016-4","0.998967944875746"
"01020017-2","0.999430685179698"
"01020018-0","0.921545168018124"
"01021002-K","0.997998380347029"
"01021007-0","0.999587151656009"
"01030003-7","0.999012029039967"
"01041003-7","0.999591903669521"
"01041004-5","0.998546034824781"
"01042001-6","0.999241196606176"
"01042002-4","0.999830283323437"
"01044001-7","0.368484415763729"
"01050007-9","0.999558909824287"
"01050009-5","0.999235829532047"
"01050010-9","0.999861480727478"
"01051004-K","0.99638313177146"
"01080001-3","0.999749884311774"
"01080002-1","0.988764594583402"
"01200002-2","0.99982373528251"
"01200003-0","0.999476763670045"
"01201003-6","0.997836581800566"
"01201005-2","0.998918508685107"
"01201010-9","0.999420116848015"
"01202009-0","0.998585582706401"
"01202010-4","0.99904010063274"
"01202012-0","0.998999847977156"
"01211006-5","0"
"01300006-9","0.999320589527248"
"01300007-7","0.998765220703343"
"01300008-5","0.999713537054023"
"01300009-3","0.997981597468671"
"01310018-7","0.99391287852096"
"01310019-5","0.994400512786053"
"01310022-5","0.999992786250527"
"01410012-1","0.999208616970333"
"01502007-5","0.99803910053655"
"01502008-3","0.999259110146582"
"01502009-1","0.996973359066199"
"01610004-8","0.998906987122042"
"01611001-9","0.999561167255678"
"01700009-8","0.999790845262522"
"01700010-1","0.992579013153206"
"01720006-2","0.999119658483773"
"01730007-5","0.997780874315368"
"01730017-2","0.999304241981751"
"01730018-0","0.999172066074299"
"01730019-9","0.99928396311232"
"01730020-2","0.999913278936186"
"01740001-0","0.999205725633432"
"01740002-9","0.99843488468652"
"01750002-3","0.549466043125234"
"01750003-1","0.998799663401515"
"01770001-4","0.999694773232724"
"01820001-5","0.992979619957313"
"02000001-5","0.994841254805501"
"02020001-4","0.999045603736902"
"02020002-2","0.997498188652028"
"02101001-4","0.996430714469838"
"02101003-0","0.999687229170712"
"02102005-2","0.999700391255406"
"02103007-4","0.990316904554523"
"02103008-2","0.997249967702608"
"02103009-0","0.998243507459314"
"02103010-4","0.999126780916269"
"02103012-0","0.999910423760947"
"02103014-7","0.999953035453597"
"02104002-9","0.996465310310352"
"02104007-K","0.99814967416185"
"02104008-8","0.999448929429006"
"02104009-6","0.975150457807315"
"02104010-K","0.989079579216282"
"02105001-6","0.999907383271122"
"02105002-4","0.997404434572827"
"02105014-8","0.998890394472378"
"02105015-6","0.991169738898625"
"02105016-4","0.998420369516284"
"02105017-2","0.9983737036817"
"02105018-0","0.998416633470693"
"02105020-2","0.99859076669595"
"02105021-0","0.998444949536583"
"02105022-9","0.999707837420765"
"02110013-7","0.996287339928763"
"02111004-3","0.99998032357997"
"02112008-1","0.968403741485961"
"02112009-K","0.883361549545619"
"02113001-K","0.99948994580004"
"02113005-2","0.999809757787411"
"02210002-5","0.969348159755325"
"02240000-2","0.995024618390406"
"02240001-0","0.997758552707327"
"02240002-9","0.0754464979202886"
"02240003-7","0"
"02240004-5","0.74103864606493"
"02240005-3","0.993524616230587"
"02300000-8","0.999273387399149"
"02500015-3","0.998222963975636"
"02500016-1","0.993621948404607"
"02500017-K","0.99877397593799"
"02500019-6","0.996871579621445"
"02500020-K","0.998708441323871"
"02500021-8","0.999022469558766"
"02500026-9","0.776934550041702"
"02500027-7","0.999003165126845"
"02510006-9","0.999483236223996"
"02510007-7","0.999122785969142"
"02700001-0","0.926952270182074"
"02710002-3","0.987524723541738"
"02710003-1","0.992751226859501"
"02760000-K","0.992840864565483"
"02900000-K","0.957321639149332"
"02900001-8","0.993752907541065"
"02942001-7","0.994168781973088"
"02943001-2","0.994320168706229"
"02943002-0","0.99777534536477"
"02943003-9","0.999780144416686"
"03210001-5","0.994177450856201"
"03340001-2","0.996174495295519"
"03404002-8","0.999301406483042"
"03414002-2","0.995666130420659"
"03421004-7","0.997283167474682"
"03430003-8","0.999055910735532"
"03430006-2","0.997669542085672"
"03430007-0","0.997221230375881"
"03431001-7","0.990257281111081"
"03431004-1","0.998456047455716"
"03441001-1","0.995891931473138"
"03450004-5","0.996111784678362"
"03604001-7","0.996002967847805"
"03701001-4","0.993814828295849"
"03802004-8","0.999643953379402"
"03802005-6","0.999126492579237"
"03802006-4","0.999095717558777"
"03804005-7","0.999541989162709"
"03804006-5","0.999294718840098"
"03804007-3","0.995969856142252"
"03806002-3","0.994441802146293"
"03814003-5","0"
"03815004-9","0.998359950920431"
"03820001-1","0.999278419122872"
"03820004-6","0.997763311323392"
"03823003-4","0.998154048591878"
"03823004-2","0.99403135775706"
"03825004-3","0.998777309265877"
"03826002-2","0.999247134994108"
"03826003-0","0.996299657391118"
"03940001-4","0.99750023290908"
"04120001-4","0.99921330630488"
"04301005-0","0.999446500528994"
"04302001-3","0.922002646155868"
"04302014-5","0.998403030478983"
"04306002-3","0.999280766511304"
"04308001-6","0.999767217268889"
"04308003-2","0.998922776578084"
"04311003-9","0.999227700186378"
"04311004-7","0.999139921595798"
"04311005-5","0.998855001604732"
"04313003-K","0.998805282399159"
"04314003-5","0.997904813980966"
"04320001-1","0.999293462513662"
"04320003-8","0.998965420931723"
"04323007-7","0.997814154674562"
"04335002-1","0.99902906304245"
"04400002-4","0.885488051044134"
"04501003-1","0.999192950463699"
"04502005-3","0.999331471973266"
"04503003-2","0.998181771953597"
"04506007-1","0.998793722777933"
"04511002-8","0.999422945567873"
"04511003-6","0.99960417096907"
"04512002-3","0.999212251878345"
"04513003-7","0.999396846040014"
"04513004-5","0.998950446969447"
"04520005-1","0.933530487309224"
"04522003-6","0.999371479490707"
"04531002-7","0.998216040766208"
"04531003-5","0.999189158662164"
"04532006-5","0.999023792358848"
"04535001-0","0.999044019598648"
"04537003-8","0.998728455241453"
"04540005-0","0.998857466505773"
"04540006-9","0.998614544682716"
"04551005-0","0.99934571610896"
"04552002-1","0.999266360641236"
"04554003-0","0.9995505132426"
"04555001-K","0.993265740761426"
"04610001-8","0.999620296420581"
"04703002-1","0.999570414085349"
"04703003-K","0.999684579071141"
"04704001-9","0.994371567107119"
"04710001-1","0.999288236612116"
"04711001-7","0.999313161160404"
"04711003-3","0.999561971081635"
"04711004-1","0.999330871266305"
"04712001-2","0.996150489878058"
"04713004-2","0.999377707546239"
"04716005-7","0.999709333992729"
"04721002-K","0.999645637382165"
"04723001-2","0.98954044291724"
"04723002-0","0.999648619408378"
"04726001-9","0.999423077431622"
"04726003-5","0.999671011048967"
"04730004-5","0.99975449320811"
"04732001-1","0.999615644233855"
"04810001-5","0.995333362089638"
"04810003-1","0.999705982886193"
"04820001-K","0.999304951523963"
"04900002-2","0.999848946308116"
"04900003-0","0.999752730082597"
"04902002-3","0.999414016026296"
"04902003-1","0.998791934052096"
"05100001-3","0.996301729608313"
"05100006-4","0.999785494852662"
"05101005-1","0.999714734234613"
"05101006-K","0.999622885510375"
"05110002-6","0.999560776988496"
"05110003-4","0.999792505081104"
"05111001-3","0.999817935581111"
"05111002-1","0.999304886071919"
"05111004-8","0.999833387842555"
"05120003-9","0.999784649803655"
"05120004-7","0.999561643242278"
"05120006-3","0.999543385381558"
"05200001-7","0.999284373851055"
"05200006-8","0.999510065939133"
"05200007-6","0.999667290331008"
"05210002-K","0.999738818351603"
"05211003-3","0.999671766229521"
"05211004-1","0.999441870663239"
"05220006-7","0.999436643921005"
"05220007-5","0.997314868154522"
"05221005-4","0.999656094293524"
"05310001-5","0.998860778268538"
"05320001-K","0.918904209414596"
"05401003-6","0.996029961176189"
"05403002-9","0.999288431744132"
"05403006-1","0.998835899829801"
"05404001-6","0.999047824934913"
"05410002-7","0.998416649322971"
"05410005-1","0.999259743437038"
"05410006-K","0.999374339243987"
"05410007-8","0.999501722192874"
"05410008-6","0.999605105327765"
"05411001-4","1"
"05414001-0","0.998964297467168"
"05414004-5","0.999324047035029"
"05414005-3","0.999798662655017"
"05415004-0","0.998941655832822"
"05421005-1","0.999718454160846"
"05422002-2","0.999785862696044"
"05423003-6","0.99934734854733"
"05423013-3","0.999719500863933"
"05424005-8","0.999524163891836"
"05425003-7","0.999620684107578"
"05426004-0","0.999489401482997"
"05427006-2","0.999426154272459"
"05427007-0","0.998731791360892"
"05427008-9","0.999547866046524"
"05500001-8","0.999318262884511"
"05500003-4","0.996901476213896"
"05510001-2","0.998384054729628"
"05510002-0","0.999035570808274"
"05510005-5","0.999393533143026"
"05520001-7","0.999298526620474"
"05520002-5","0.997971744751291"
"05530002-K","0.998616562522811"
"05530003-8","0.997653753624728"
"05701005-3","0.999609075633807"
"05702001-6","0.999036811701863"
"05703008-9","0.998773211682547"
"05704002-5","0.999210795848098"
"05704004-1","0.999266752691378"
"05704006-8","0.999303185361727"
"05705001-2","0.998035816946624"
"05706001-8","0.999204166424931"
"05706003-4","0.975119403683327"
"05707003-K","0.999544368690701"
"05710001-K","0.999164203610995"
"05710007-9","0.999653080139964"
"05711003-1","0.998390795357613"
"05716001-2","1"
"05716004-7","0.998977843765555"
"05716005-5","0.998960897480343"
"05717008-5","0.999317790252148"
"05720001-4","0.999433474615844"
"05720003-0","0.999219675625003"
"05721001-K","0.9950754319309"
"05721016-8","0.999462037497785"
"05722001-5","0.999016823184779"
"05722002-3","0.999637385925904"
"05723001-0","0.999247306316579"
"05730008-6","0.999682460594509"
"05730012-4","0.999434855721376"
"05730013-2","0.999467112436476"
"05730014-0","0.999570039124218"
"05730016-7","0.999815019161498"
"05730039-6","0.999532325410363"
"05732001-K","0.99966109065265"
"05732002-8","0.999340906088447"
"05733006-6","0.999661100177996"
"05733007-4","0.999220547107817"
"05733008-2","0.999295285467543"
"05733010-4","0.998723080104568"
"05737002-5","0.99891082835717"
"05737008-4","0.99840485304903"
"05740004-8","0.999040822374859"
"05740005-6","0.999054171868868"
"05741002-7","0.99920803874946"
"05744002-3","0.999608148139676"
"05744003-1","0.999053669858228"
"05745001-0","0.999528407590194"
"05746001-6","0.998491116359327"
"05747001-1","0.9988911450757"
"05748001-7","0.997895132361252"
"05748003-3","0.998838492953497"
"05800002-7","0.998994472457184"
"06000003-4","0.998977233235873"
"06003001-4","0.998885798057432"
"06006001-0","0.999412146567507"
"06008009-7","0.99156423625286"
"06010015-2","0.999487557854767"
"06010016-0","0.999190537060801"
"06011001-8","0"
"06011003-4","0.999600087483683"
"06012003-K","0.999091244005447"
"06013001-9","0"
"06013005-1","0.998803277947495"
"06013006-K","0.999457969169156"
"06013008-6","0"
"06015003-6","0.998814743866782"
"06016004-K","0.999225794934269"
"06018009-1","0.999602522410737"
"06018010-5","0.999165349459576"
"06019003-8","0.998157574884185"
"06019005-4","0.999225991125476"
"06027001-5","0"
"06027003-1","0.999442883500017"
"06028001-0","0.998782915827683"
"06034003-K","0.998954533007649"
"06036001-4","0.998944661186963"
"06040001-6","0.999613004994781"
"06042004-1","0.999349119075609"
"06044001-8","0.999359905514909"
"06055003-4","0.998991688272382"
"06120001-0","0.999244369931727"
"06130001-5","0.99877255425351"
"06130002-3","0.998547024838275"
"06130003-1","0.996965287555212"
"06132002-4","0.998760926349978"
"07103003-2","0.998964348242445"
"07104002-K","0.99878194078709"
"07104005-4","0.998575713712045"
"07106007-1","0.998861921160599"
"07115001-1","0.996085659689317"
"07116004-1","0.998572733772964"
"07116005-K","0.998783345210224"
"07118003-4","0.998994735423092"
"07119007-2","0.999110427059125"
"07120002-7","0.995843839539152"
"07121003-0","0.999394421817434"
"07123001-5","0.998420905814015"
"07200001-3","0.99858817842649"
"07210001-8","0.998338745456258"
"07303000-5","0.997528349031227"
"07317001-K","0.998232870878904"
"07317005-2","0.996652947139677"
"07320002-4","0.997248366680404"
"07320003-2","0.998285127748639"
"07321002-K","0.998439108461505"
"07330001-0","0.981474890698466"
"07331002-4","0.998604426139242"
"07332003-8","0.998529490198077"
"07335004-2","0.999161838996536"
"07336003-K","0.998523049522286"
"07337002-7","0.999093306184131"
"07340002-3","0.998585215791277"
"07340003-1","0.998735935528343"
"07341002-9","0.999237672688111"
"07342002-4","0.997857900965626"
"07345001-2","0.998188754548208"
"07350001-K","0.997651447808"
"07350006-0","0.997979414488915"
"07350007-9","0.998425997563656"
"07352002-9","0.998519446699185"
"07352003-7","0.999114760262556"
"07353001-6","0.99797382633113"
"07355002-5","0.997881730436554"
"07355006-8","0.997825975710571"
"07355007-6","0.998695377403523"
"07357003-4","0.998531748262417"
"07358007-2","0.997511858784639"
"07358008-0","0.998482483334305"
"07359001-9","0.998422439681513"
"07359005-1","0.997838430929626"
"07370001-9","0.9988385602604"
"07371002-2","0.99922207886617"
"07373003-1","0.998990531691489"
"07373004-K","0.998015861010982"
"07374004-5","0.998250333594423"
"07374005-3","0.997955095637471"
"07376002-K","0.997356448077942"
"07378002-0","0.997795349388013"
"07378003-9","0.998004029068295"
"07379002-6","0.997900500056262"
"07381003-5","0.999233881723444"
"07383001-K","0.998776580777435"
"07384002-3","0.998528659812197"
"08105004-K","0.997912593593426"
"08105005-8","0.998082799383964"
"08106002-9","0.993878070258073"
"08106003-7","0.998587983125503"
"08113001-9","0.998511244677314"
"08117002-9","0.998206571648259"
"08117006-1","0.991786647254841"
"08117009-6","0.995408970624944"
"08118003-2","0.998785930698276"
"08118004-0","0.999134299463245"
"08122002-6","0.998164305894826"
"08122003-4","0.996935664143849"
"08123004-8","0.998468778007691"
"08124004-3","0.99828965386973"
"08124005-1","0.997746527835158"
"08130002-K","0.989925943032538"
"08130003-8","0.998105651296217"
"08130004-6","0.998697509362017"
"08130006-2","0.99779278012361"
"08130007-0","0.998785397941187"
"08132002-0","0.998796922204642"
"08133003-4","0.998991739710287"
"08135003-5","0.998229748235452"
"08135004-3","0.997313395460186"
"08140001-6","0.997685277433123"
"08140005-9","0.99530370849589"
"08141001-1","0.996797135049684"
"08141002-K","0.999381879122883"
"08142001-7","0.99799918374171"
"08210002-4","0.998447543662478"
"08210003-2","0.996437273364078"
"08220006-1","0.998168489008238"
"08220008-8","0.996162904566256"
"08301001-0","0.997349053566949"
"08304004-1","0.996291112618217"
"08307002-1","0.998425784128153"
"08312002-9","0.99424736392209"
"08313002-4","0.998695960489577"
"08316001-2","0.99903176730376"
"08316002-0","0.977561855175992"
"08317001-8","0.997262472348605"
"08317003-4","0.998882948362796"
"08317004-2","0.992181345597103"
"08317005-0","0.992765147472247"
"08318002-1","0.998900989777178"
"08319001-9","0.994037053246811"
"08319002-7","0.998596046587596"
"08320001-4","0.997637842467296"
"08323001-0","0.978416069311721"
"08324001-6","0.999549490794859"
"08330002-7","0.997553696391878"
"08332002-8","0.998010927536068"
"08334001-0","0.992505220042765"
"08334002-9","0.998693886019268"
"08343001-K","0.989698845425029"
"08343002-8","0.99759671452579"
"08350002-6","0.998407871735972"
"08351001-3","0.996085776590141"
"08351003-K","0.999214867108718"
"08353001-4","0.9975052543746"
"08358002-K","0.99914254336343"
"08358003-8","0.997171142251419"
"08358004-6","0.998489966100814"
"08358005-4","0.995645989793987"
"08364001-4","0.997322813251765"
"08366002-3","0.991142543994707"
"08367001-0","0.999013135656424"
"08380001-1","0.998733408549508"
"08381003-3","0.986067488345471"
"08393002-0","0.983615495707361"
"08394001-8","0.996359045422368"
"08394006-9","0.999232750754642"
"08410001-3","0.997963325383684"
"08410002-1","0.998176756975497"
"08520000-3","0.998670053652473"
"08700001-K","0.996738332590646"
"08700002-8","0.995369133428753"
"08700003-6","0.992467789963751"
"08821005-0","0.996966489326598"
"08821006-9","0.995535831979041"
"08822008-0","0.998435418385028"
"08930000-2","0.993658249145481"
"09101003-8","0.997991208642628"
"09102003-3","0.998006751294658"
"09104003-4","0.998708270845877"
"09105002-1","0.997511636297558"
"09111002-4","0.998371532611858"
"09112000-3","0.995867354711221"
"09113003-3","0.998172301117973"
"09114001-2","0.996990106741295"
"09116001-3","0.996882012717867"
"09116002-1","0.997780856486019"
"09120003-1","0.998515503435739"
"09122001-6","0.998364140451327"
"09123001-1","0.992538114421024"
"09123002-K","0.998540111661984"
"09124001-7","0.998959376938036"
"09129002-2","0.998560189848179"
"09129005-7","0.998687054730076"
"09129006-5","0.989168867753019"
"09130001-K","0.998492180789768"
"09131002-3","0.998585815715279"
"09135003-3","0.998973187734393"
"09140001-4","0.987226388593939"
"09140002-2","0.996932146082775"
"09151001-4","0.996329114208835"
"09153001-5","0.997393445269944"
"09400000-9","0.995071774621048"
"09401001-2","0.998614201768115"
"09403001-3","0.99937172565097"
"09404002-7","0.999231799030967"
"09404003-5","0.998454679238707"
"09405001-4","0"
"09412002-0","0.999558985697571"
"09412003-9","0.998379544360955"
"09414002-1","0.998829621638948"
"09416002-2","0.999069408387553"
"09417001-K","0.999025404754282"
"09417002-8","0.999402783097772"
"09420002-4","0.998330612745411"
"09420003-2","0.997032665223292"
"09420004-0","0.999038698691915"
"09433003-3","0.999120503489034"
"09437002-7","0.996695630604082"
"09438001-4","0.999309512142087"
"09439001-K","0.999271700984013"
"10100002-8","0.999416153531451"
"10100004-4","0.999523721204396"
"10100005-2","0.999651956837777"
"10102002-9","0.999347304381222"
"10106001-2","0.998094716636898"
"10106002-0","0.998625515718353"
"10106003-9","0.998924557938647"
"10111002-8","0.999336146967636"
"10122003-6","0.99762951260067"
"10123004-K","0.999361574643765"
"10123006-6","0.999453841216407"
"10130001-3","0.998440846609285"
"10133000-1","0.99703477301231"
"10134002-3","0.996986688393387"
"10137002-K","0.997909265421871"
"10141001-3","0.999312773594919"
"10304002-7","0.998906878666165"
"10305002-2","0.997526666719998"
"10307001-5","0.997639410849726"
"10312001-2","0.998465470218097"
"10313001-8","0.991839907486133"
"10322002-5","0.999621090175471"
"10323002-0","0.99965939564002"
"10328001-K","0.995745592293063"
"10340001-5","0.998217925629557"
"10340002-3","0.998901260804726"
"10350001-K","0.997871613165971"
"10354001-1","0.999739274125223"
"10355001-7","0.998534413011905"
"10355003-3","0.994432873577176"
"10356001-2","0.999012691063385"
"10371001-4","0.9995464021049"
"10372001-K","0.9991963067511"
"10401002-4","0.998558383887354"
"10410004-K","0.999486560883963"
"10410005-8","0.999441938539044"
"10410015-5","0.996764695122515"
"10417001-3","0.999760153830646"
"10425001-7","0.999753869975848"
"10430001-4","0.999568901477594"
"10430005-7","0.993984816217217"
"10432004-K","0.998940243217524"
"10512000-1","0.999506137261653"
"10520001-3","0.999064012996934"
"10523001-K","0.999294246221281"
"10610001-2","0.99953468658481"
"10683001-0","0.999483470183452"
"10701001-7","0.999857864957798"
"10704001-3","0.999420650571213"
"10704002-1","0.998702066891391"
"10710001-6","0.999898260201926"
"10900001-9","0.999737766397951"
"10900002-7","0.998942242095614"
"10901002-2","0.999401648711453"
"10901003-0","0.998004140681146"
"10901004-9","0.995204294302546"
"10902002-8","0.999255511418707"
"10903003-1","0.999291069929964"
"10904005-3","0.99887522955481"
"10906004-6","0.999240986561257"
"11023001-K","0.999681877457408"
"11023002-8","0.999471373978965"
"11031001-3","0.999374692564981"
"11033001-4","0.999807321109844"
"11034001-K","0.999646608114557"
"11041001-8","0.999418463348446"
"11043001-9","0.99985598596473"
"11120001-7","0.999006710495861"
"11140001-6","0.996942426073447"
"11143003-9","0.99931274226933"
"11144002-6","0.999704752439045"
"11147003-0","0.999656192722635"
"11180000-6","0.999727050474914"
"11300001-5","0.999360499829372"
"11302002-4","0.998102875051793"
"11304001-7","0.999393365872758"
"11307002-1","0.999181447232413"
"11310003-6","0.999723317301989"
"11316003-9","0.999668425750811"
"11316004-7","0.999637815014215"
"11317001-8","0.99910187673792"
"11317005-0","0.999379725430232"
"11318002-1","0.999756413803567"
"11342001-4","0.998999768845022"
"11342002-2","0.999607027099252"
"11400001-9","0.999244348717074"
"11503001-9","0.998798058744596"
"11505001-K","0.99923258548129"
"11511001-2","0.998735849728425"
"11513001-3","0.999600720955793"
"11517002-3","0.992639417191948"
"11521002-5","0.99970109278755"
"11521005-K","0.990134835949853"
"11523001-8","0.999399488851236"
"11523002-6","0.998437441861433"
"11532000-9","0.998978885421923"
"11533001-2","0.999298763594041"
"11536001-9","0.998577942087336"
"11536004-3","0.999040977634826"
"11540000-2","0.962381789740085"
"11541000-8","0.998485181399852"
"11546001-3","0.999252092054573"
"11700001-K","0.996231148561267"
"11701002-3","0.999028310758769"
"11702000-2","0.999621073638948"
"11704001-1","0.999224517190589"
"11706000-4","0"
"11711000-1","0.998435972829515"
"11800000-5","0"
"12125001-2","0.997687873966891"
"12125002-0","1"
"12271000-9","0.889433560078381"
"12280002-4","0.999862118341017"
"12280004-0","0.995477663184016"
"12280006-7","0.996535798394785"
"12283001-2","0.99901805499386"
"12283003-9","0.997255631334379"
"12284006-9","0.99927142459355"
"12284009-3","0.997847357898553"
"12284010-7","0.99961245220638"
"12286001-9","0.99521967023101"
"12286002-7","1"
"12287002-2","0.998651057366955"
"12288003-6","0.940178449053879"
"12289001-5","0.997218792961725"
"12293001-7","0.992188570548484"
"12400001-7","0.999614051816608"
"12400002-5","0.998605533154185"
"12400003-3","0.992559908185708"
"12402000-K","0.999057378142011"
"12403000-5","0.956470652637489"
"12440001-5","0.999534155041118"
"12448001-9","0.987282296126997"
"12449001-4","0.999673323973698"
"12449002-2","0.998620036438185"
"12452001-0","0.998379102106894"
"12452002-9","0.999459305824717"
"12454001-1","0.999791673097272"
"12530001-4","0.995456110378018"
"12540001-9","0.996546698964046"
"12582001-8","0.996841779715258"
"12582002-6","0.99942159448636"
"12582003-4","0.998437328244176"
"12585003-0","0.998865865202421"
"12586001-K","0.999348299538486"
"12586004-4","0.998758483047438"
"12586005-2","0.999378900247388"
"12586006-0","0.998680180914491"
"12586007-9","0.999820966902703"
"12586009-5","0.999315317056448"
"12586010-9","0.997495263209213"
"12587000-7","0.99916361036058"
"12600001-4","0.999671339624339"
"12620000-5","0.998964420123805"
"12622001-4","0.993086018904666"
"12622002-2","0.99859767635098"
"12640001-2","0.998432590769073"
"12680001-0","0.998292592016814"
"12802001-2","0.997913948898962"
"12802002-0","0.998192830082114"
"12803000-K","0.997126445852916"
"12806004-9","0.999690069766566"
"12809001-0","0.998836091576172"
"12815001-3","0.997451597791857"
"12816001-9","0.999709830974646"
"12820001-0","0.999392260626285"
"12820002-9","0.999221731401978"
"12821000-8","0.989480724730405"
"12825002-6","0.999665296940849"
"12863001-5","0.99911053934687"
"12873001-K","0.999884103019618"
"12875000-2","0.997846506765374"
"12876001-6","0.99955791725854"
"12876002-4","0.999677126717951"
"12876003-2","0.999768022616891"
"12878002-5","0.996300910644062"
"12879000-4","0.998532959496911"
"12930001-9","0.996965090185273"
"12930003-5","0.999079602604591"
"12930004-3","0.999244487138643"
"12930005-1","0.999735291910673"
